{ "factory" : "ferrari", "year" : 2000, "carName" : "ferrari", "_id" : { "$oid" : "52e1d423723fabc019e22f32" }, "__v" : 0 }
{ "_id" : { "$oid" : "52e1d51b176548a00fb4c253" }, "__v" : 0 }
{ "factory" : "Porsche", "year" : 1970, "carName" : "Porsche", "_id" : { "$oid" : "52e1d597176548a00fb4c254" }, "__v" : 0 }
{ "factory" : "Wolkswagen", "year" : 1960, "carName" : "Fusca", "_id" : { "$oid" : "52e1d5f3176548a00fb4c255" }, "__v" : 0 }
